%YAML 1.1
%TAG !u! tag:unity3d.com,2011:
--- !u!1 &729456172891736439
GameObject:
  m_ObjectHideFlags: 0
  m_CorrespondingSourceObject: {fileID: 0}
  m_PrefabInstance: {fileID: 0}
  m_PrefabAsset: {fileID: 0}
  serializedVersion: 6
  m_Component:
  - component: {fileID: 3479417152427660001}
  - component: {fileID: 6149614305506352204}
  m_Layer: 0
  m_Name: ShadowProjector
  m_TagString: Untagged
  m_Icon: {fileID: 0}
  m_NavMeshLayer: 0
  m_StaticEditorFlags: 0
  m_IsActive: 1
--- !u!4 &3479417152427660001
Transform:
  m_ObjectHideFlags: 0
  m_CorrespondingSourceObject: {fileID: 0}
  m_PrefabInstance: {fileID: 0}
  m_PrefabAsset: {fileID: 0}
  m_GameObject: {fileID: 729456172891736439}
  m_LocalRotation: {x: 0.7071068, y: 0, z: 0, w: 0.7071068}
  m_LocalPosition: {x: 0, y: 1.017, z: 0}
  m_LocalScale: {x: 1, y: 1, z: 1}
  m_Children: []
  m_Father: {fileID: 2015434656898269656}
  m_RootOrder: 4
  m_LocalEulerAnglesHint: {x: 90, y: 0, z: 0}
--- !u!119 &6149614305506352204
Projector:
  m_ObjectHideFlags: 0
  m_CorrespondingSourceObject: {fileID: 0}
  m_PrefabInstance: {fileID: 0}
  m_PrefabAsset: {fileID: 0}
  m_GameObject: {fileID: 729456172891736439}
  m_Enabled: 1
  serializedVersion: 2
  m_NearClipPlane: 0.3
  m_FarClipPlane: 2.9
  m_FieldOfView: 105.92
  m_AspectRatio: 1
  m_Orthographic: 1
  m_OrthographicSize: 0.54
  m_Material: {fileID: 2100000, guid: 700c8e4508ea3b34999c1917db3d4424, type: 2}
  m_IgnoreLayers:
    serializedVersion: 2
    m_Bits: 0
--- !u!1 &2015434656898269652
GameObject:
  m_ObjectHideFlags: 0
  m_CorrespondingSourceObject: {fileID: 0}
  m_PrefabInstance: {fileID: 0}
  m_PrefabAsset: {fileID: 0}
  serializedVersion: 6
  m_Component:
  - component: {fileID: 2015434656898269656}
  - component: {fileID: 9087143436424816424}
  - component: {fileID: 4752156053906186385}
  - component: {fileID: 6370966072896210225}
  - component: {fileID: 3464315327790461765}
  - component: {fileID: 7406548990343174644}
  - component: {fileID: 6449686686394465367}
  - component: {fileID: 797398738606809810}
  - component: {fileID: 1614318205656627459}
  m_Layer: 0
  m_Name: Enemy_HoverBot
  m_TagString: Untagged
  m_Icon: {fileID: -964228994112308473, guid: 0000000000000000d000000000000000, type: 0}
  m_NavMeshLayer: 0
  m_StaticEditorFlags: 0
  m_IsActive: 1
--- !u!4 &2015434656898269656
Transform:
  m_ObjectHideFlags: 0
  m_CorrespondingSourceObject: {fileID: 0}
  m_PrefabInstance: {fileID: 0}
  m_PrefabAsset: {fileID: 0}
  m_GameObject: {fileID: 2015434656898269652}
  m_LocalRotation: {x: 0, y: 0, z: 0, w: 1}
  m_LocalPosition: {x: 0, y: 0, z: 0}
  m_LocalScale: {x: 1, y: 1, z: 1}
  m_Children:
  - {fileID: 320366457750808919}
  - {fileID: 6571005840976436832}
  - {fileID: 381893446485871685}
  - {fileID: 3175718064325614203}
  - {fileID: 3479417152427660001}
  - {fileID: 136806910776417928}
  m_Father: {fileID: 0}
  m_RootOrder: 0
  m_LocalEulerAnglesHint: {x: 0, y: 0, z: 0}
--- !u!114 &9087143436424816424
MonoBehaviour:
  m_ObjectHideFlags: 0
  m_CorrespondingSourceObject: {fileID: 0}
  m_PrefabInstance: {fileID: 0}
  m_PrefabAsset: {fileID: 0}
  m_GameObject: {fileID: 2015434656898269652}
  m_Enabled: 1
  m_EditorHideFlags: 0
  m_Script: {fileID: 11500000, guid: 3de939d976a5bb0419ccd8dbd0b6836b, type: 3}
  m_Name: 
  m_EditorClassIdentifier: 
  selfDestructYHeight: -20
  pathReachingRadius: 2
  orientationSpeed: 10
  deathDuration: 0
  eyeColorMaterial: {fileID: 2100000, guid: e6fdfd4e017234d43ac116abee8fa90a, type: 2}
  defaultEyeColor: {r: 23.968628, g: 6.6509805, b: 0, a: 1}
  attackEyeColor: {r: 23.968628, g: 1.0076232, b: 0, a: 1}
  bodyMaterial: {fileID: 2100000, guid: c3dc5a90c49c99142999f85d6b419d80, type: 2}
  onHitBodyGradient:
    serializedVersion: 2
    key0: {r: 0, g: 0, b: 0, a: 1}
    key1: {r: 1.4980392, g: 1.4980392, b: 1.4980392, a: 1}
    key2: {r: 0, g: 0, b: 0, a: 0}
    key3: {r: 0, g: 0, b: 0, a: 0}
    key4: {r: 0, g: 0, b: 0, a: 0}
    key5: {r: 0, g: 0, b: 0, a: 0}
    key6: {r: 0, g: 0, b: 0, a: 0}
    key7: {r: 0, g: 0, b: 0, a: 0}
    ctime0: 0
    ctime1: 21203
    ctime2: 65535
    ctime3: 65535
    ctime4: 0
    ctime5: 0
    ctime6: 0
    ctime7: 0
    atime0: 0
    atime1: 65535
    atime2: 0
    atime3: 0
    atime4: 0
    atime5: 0
    atime6: 0
    atime7: 0
    m_Mode: 0
    m_NumColorKeys: 3
    m_NumAlphaKeys: 2
  flashOnHitDuration: 0.2
  damageTick: {fileID: 8300000, guid: a7fae22399a6e1d448dc0dd2210f1dac, type: 3}
  deathVFX: {fileID: 8950624839484268180, guid: 2a8f5052fe50f7b41b17149abb0f7414,
    type: 3}
  deathVFXSpawnPoint: {fileID: 381893446485871685}
  lootPrefab: {fileID: 2529580269645609534, guid: 9973c412032becb4ca116ca08be62edf,
    type: 3}
  dropRate: 1
  pathReachingRangeColor: {r: 1, g: 0.92156863, b: 0.015686275, a: 1}
  attackRangeColor: {r: 1, g: 0, b: 0, a: 1}
  detectionRangeColor: {r: 0, g: 0, b: 1, a: 1}
--- !u!114 &4752156053906186385
MonoBehaviour:
  m_ObjectHideFlags: 0
  m_CorrespondingSourceObject: {fileID: 0}
  m_PrefabInstance: {fileID: 0}
  m_PrefabAsset: {fileID: 0}
  m_GameObject: {fileID: 2015434656898269652}
  m_Enabled: 1
  m_EditorHideFlags: 0
  m_Script: {fileID: 11500000, guid: 1857b2df8de24b24190ce9e067d2e1e4, type: 3}
  m_Name: 
  m_EditorClassIdentifier: 
  animator: {fileID: 320366457759794871}
  attackStopDistanceRatio: 0.08
  randomHitSparks:
  - {fileID: 9125706537325074547}
  - {fileID: 8158939429672774431}
  - {fileID: 3661562211460385405}
  - {fileID: 5625802328757436829}
  onDetectVFX:
  - {fileID: 8934028655093144013}
  - {fileID: 1407167163009738010}
  - {fileID: 6104096765092005263}
  onDetectSFX: {fileID: 8300000, guid: 25722734eeccba042a18e26e376ca542, type: 3}
  MovementSound: {fileID: 0}
  PitchDistortionMovementSpeed:
    min: 1
    max: 1.5
--- !u!114 &6370966072896210225
MonoBehaviour:
  m_ObjectHideFlags: 0
  m_CorrespondingSourceObject: {fileID: 0}
  m_PrefabInstance: {fileID: 0}
  m_PrefabAsset: {fileID: 0}
  m_GameObject: {fileID: 2015434656898269652}
  m_Enabled: 1
  m_EditorHideFlags: 0
  m_Script: {fileID: 11500000, guid: e27364eefd6dd0341ba72a3bfc0d9727, type: 3}
  m_Name: 
  m_EditorClassIdentifier: 
  maxHealth: 100
  criticalHealthRatio: 0.3
--- !u!114 &3464315327790461765
MonoBehaviour:
  m_ObjectHideFlags: 0
  m_CorrespondingSourceObject: {fileID: 0}
  m_PrefabInstance: {fileID: 0}
  m_PrefabAsset: {fileID: 0}
  m_GameObject: {fileID: 2015434656898269652}
  m_Enabled: 1
  m_EditorHideFlags: 0
  m_Script: {fileID: 11500000, guid: 88567379ffc126c4e96b34011148ffa0, type: 3}
  m_Name: 
  m_EditorClassIdentifier: 
  health: {fileID: 6370966072896210225}
  healthBarImage: {fileID: 5299349968446827641}
  healthBarPivot: {fileID: 3175718064325614203}
  hideFullHealthBar: 1
--- !u!195 &7406548990343174644
NavMeshAgent:
  m_ObjectHideFlags: 0
  m_CorrespondingSourceObject: {fileID: 0}
  m_PrefabInstance: {fileID: 0}
  m_PrefabAsset: {fileID: 0}
  m_GameObject: {fileID: 2015434656898269652}
  m_Enabled: 1
  m_AgentTypeID: 0
  m_Radius: 0.5
  m_Speed: 3.5
  m_Acceleration: 8
  avoidancePriority: 50
  m_AngularSpeed: 120
  m_StoppingDistance: 0.2
  m_AutoTraverseOffMeshLink: 1
  m_AutoBraking: 1
  m_AutoRepath: 1
  m_Height: 2
  m_BaseOffset: 0
  m_WalkableMask: 4294967295
  m_ObstacleAvoidanceType: 2
--- !u!114 &6449686686394465367
MonoBehaviour:
  m_ObjectHideFlags: 0
  m_CorrespondingSourceObject: {fileID: 0}
  m_PrefabInstance: {fileID: 0}
  m_PrefabAsset: {fileID: 0}
  m_GameObject: {fileID: 2015434656898269652}
  m_Enabled: 1
  m_EditorHideFlags: 0
  m_Script: {fileID: 11500000, guid: 81b4c4e7c5d6cd34bb04cb46517b4e23, type: 3}
  m_Name: 
  m_EditorClassIdentifier: 
  affiliation: 0
  aimPoint: {fileID: 381893446485871685}
--- !u!114 &797398738606809810
MonoBehaviour:
  m_ObjectHideFlags: 0
  m_CorrespondingSourceObject: {fileID: 0}
  m_PrefabInstance: {fileID: 0}
  m_PrefabAsset: {fileID: 0}
  m_GameObject: {fileID: 2015434656898269652}
  m_Enabled: 1
  m_EditorHideFlags: 0
  m_Script: {fileID: 11500000, guid: 14b7698ec50c85c44a849a968dc1d57d, type: 3}
  m_Name: 
  m_EditorClassIdentifier: 
  compassMarkerPrefab: {fileID: 4125838790012652590, guid: 513785daf84f2a243b0cda079e6835cd,
    type: 3}
  textDirection: 
--- !u!82 &1614318205656627459
AudioSource:
  m_ObjectHideFlags: 0
  m_CorrespondingSourceObject: {fileID: 0}
  m_PrefabInstance: {fileID: 0}
  m_PrefabAsset: {fileID: 0}
  m_GameObject: {fileID: 2015434656898269652}
  m_Enabled: 1
  serializedVersion: 4
  OutputAudioMixerGroup: {fileID: 243469522734499658, guid: fcc71635aab95ff4fbdf1880bf2afa2f,
    type: 2}
  m_audioClip: {fileID: 8300000, guid: 44c5f76f80602024e82d3e5f3af4ee97, type: 3}
  m_PlayOnAwake: 1
  m_Volume: 0.25
  m_Pitch: 1
  Loop: 1
  Mute: 0
  Spatialize: 0
  SpatializePostEffects: 0
  Priority: 128
  DopplerLevel: 1
  MinDistance: 1.5
  MaxDistance: 500
  Pan2D: 0
  rolloffMode: 0
  BypassEffects: 0
  BypassListenerEffects: 0
  BypassReverbZones: 0
  rolloffCustomCurve:
    serializedVersion: 2
    m_Curve:
    - serializedVersion: 3
      time: 0
      value: 1
      inSlope: 0
      outSlope: 0
      tangentMode: 0
      weightedMode: 0
      inWeight: 0.33333334
      outWeight: 0.33333334
    - serializedVersion: 3
      time: 1
      value: 0
      inSlope: 0
      outSlope: 0
      tangentMode: 0
      weightedMode: 0
      inWeight: 0.33333334
      outWeight: 0.33333334
    m_PreInfinity: 2
    m_PostInfinity: 2
    m_RotationOrder: 4
  panLevelCustomCurve:
    serializedVersion: 2
    m_Curve:
    - serializedVersion: 3
      time: 0
      value: 1
      inSlope: 0
      outSlope: 0
      tangentMode: 0
      weightedMode: 0
      inWeight: 0.33333334
      outWeight: 0.33333334
    m_PreInfinity: 2
    m_PostInfinity: 2
    m_RotationOrder: 4
  spreadCustomCurve:
    serializedVersion: 2
    m_Curve:
    - serializedVersion: 3
      time: 0
      value: 0
      inSlope: 0
      outSlope: 0
      tangentMode: 0
      weightedMode: 0
      inWeight: 0.33333334
      outWeight: 0.33333334
    m_PreInfinity: 2
    m_PostInfinity: 2
    m_RotationOrder: 4
  reverbZoneMixCustomCurve:
    serializedVersion: 2
    m_Curve:
    - serializedVersion: 3
      time: 0
      value: 1
      inSlope: 0
      outSlope: 0
      tangentMode: 0
      weightedMode: 0
      inWeight: 0.33333334
      outWeight: 0.33333334
    m_PreInfinity: 2
    m_PostInfinity: 2
    m_RotationOrder: 4
--- !u!1 &2201913640410082181
GameObject:
  m_ObjectHideFlags: 0
  m_CorrespondingSourceObject: {fileID: 0}
  m_PrefabInstance: {fileID: 0}
  m_PrefabAsset: {fileID: 0}
  serializedVersion: 6
  m_Component:
  - component: {fileID: 2096565386399891227}
  m_Layer: 10
  m_Name: GunMuzzle
  m_TagString: Untagged
  m_Icon: {fileID: 0}
  m_NavMeshLayer: 0
  m_StaticEditorFlags: 0
  m_IsActive: 1
--- !u!4 &2096565386399891227
Transform:
  m_ObjectHideFlags: 0
  m_CorrespondingSourceObject: {fileID: 0}
  m_PrefabInstance: {fileID: 0}
  m_PrefabAsset: {fileID: 0}
  m_GameObject: {fileID: 2201913640410082181}
  m_LocalRotation: {x: -0, y: -0, z: -0, w: 1}
  m_LocalPosition: {x: 0, y: 0, z: -0.026}
  m_LocalScale: {x: 1, y: 1, z: 1}
  m_Children: []
  m_Father: {fileID: 8093968053717355754}
  m_RootOrder: 1
  m_LocalEulerAnglesHint: {x: 0, y: 0, z: 0}
--- !u!1 &5509532083174401704
GameObject:
  m_ObjectHideFlags: 0
  m_CorrespondingSourceObject: {fileID: 0}
  m_PrefabInstance: {fileID: 0}
  m_PrefabAsset: {fileID: 0}
  serializedVersion: 6
  m_Component:
  - component: {fileID: 3175718064325614203}
  m_Layer: 0
  m_Name: HealthBarPivot
  m_TagString: Untagged
  m_Icon: {fileID: 0}
  m_NavMeshLayer: 0
  m_StaticEditorFlags: 0
  m_IsActive: 1
--- !u!4 &3175718064325614203
Transform:
  m_ObjectHideFlags: 0
  m_CorrespondingSourceObject: {fileID: 0}
  m_PrefabInstance: {fileID: 0}
  m_PrefabAsset: {fileID: 0}
  m_GameObject: {fileID: 5509532083174401704}
  m_LocalRotation: {x: 0, y: 0, z: 0, w: 1}
  m_LocalPosition: {x: 0, y: 2.101, z: 0}
  m_LocalScale: {x: 1, y: 1, z: 1}
  m_Children:
  - {fileID: 2517379088827036479}
  m_Father: {fileID: 2015434656898269656}
  m_RootOrder: 3
  m_LocalEulerAnglesHint: {x: 0, y: 0, z: 0}
--- !u!1 &6229573252830750061
GameObject:
  m_ObjectHideFlags: 0
  m_CorrespondingSourceObject: {fileID: 0}
  m_PrefabInstance: {fileID: 0}
  m_PrefabAsset: {fileID: 0}
  serializedVersion: 6
  m_Component:
  - component: {fileID: 136806910776417928}
  - component: {fileID: 6809973363424661249}
  m_Layer: 0
  m_Name: DetectionModule
  m_TagString: Untagged
  m_Icon: {fileID: 0}
  m_NavMeshLayer: 0
  m_StaticEditorFlags: 0
  m_IsActive: 1
--- !u!4 &136806910776417928
Transform:
  m_ObjectHideFlags: 0
  m_CorrespondingSourceObject: {fileID: 0}
  m_PrefabInstance: {fileID: 0}
  m_PrefabAsset: {fileID: 0}
  m_GameObject: {fileID: 6229573252830750061}
  m_LocalRotation: {x: 0, y: 0, z: 0, w: 1}
  m_LocalPosition: {x: 0, y: 0, z: 0}
  m_LocalScale: {x: 1, y: 1, z: 1}
  m_Children: []
  m_Father: {fileID: 2015434656898269656}
  m_RootOrder: 5
  m_LocalEulerAnglesHint: {x: 0, y: 0, z: 0}
--- !u!114 &6809973363424661249
MonoBehaviour:
  m_ObjectHideFlags: 0
  m_CorrespondingSourceObject: {fileID: 0}
  m_PrefabInstance: {fileID: 0}
  m_PrefabAsset: {fileID: 0}
  m_GameObject: {fileID: 6229573252830750061}
  m_Enabled: 1
  m_EditorHideFlags: 0
  m_Script: {fileID: 11500000, guid: 927ff0b4cb9a5dd4fb83c45166cffc50, type: 3}
  m_Name: 
  m_EditorClassIdentifier: 
  detectionSourcePoint: {fileID: 6571005840976436832}
  detectionRange: 20
  attackRange: 10
  knownTargetTimeout: 12
--- !u!1 &6421371450313891992
GameObject:
  m_ObjectHideFlags: 0
  m_CorrespondingSourceObject: {fileID: 0}
  m_PrefabInstance: {fileID: 0}
  m_PrefabAsset: {fileID: 0}
  serializedVersion: 6
  m_Component:
  - component: {fileID: 381893446485871685}
  - component: {fileID: 4657678879490380143}
  - component: {fileID: 168451937821874537}
  - component: {fileID: 862342350251935012}
  m_Layer: 0
  m_Name: HitBox
  m_TagString: Untagged
  m_Icon: {fileID: 0}
  m_NavMeshLayer: 0
  m_StaticEditorFlags: 0
  m_IsActive: 1
--- !u!4 &381893446485871685
Transform:
  m_ObjectHideFlags: 0
  m_CorrespondingSourceObject: {fileID: 0}
  m_PrefabInstance: {fileID: 0}
  m_PrefabAsset: {fileID: 0}
  m_GameObject: {fileID: 6421371450313891992}
  m_LocalRotation: {x: -0.7071068, y: -0, z: -0, w: 0.7071068}
  m_LocalPosition: {x: -0.00036058843, y: 1.359, z: 0}
  m_LocalScale: {x: 1, y: 1, z: 1}
  m_Children: []
  m_Father: {fileID: 2015434656898269656}
  m_RootOrder: 2
  m_LocalEulerAnglesHint: {x: 0, y: 0, z: 0}
--- !u!33 &4657678879490380143
MeshFilter:
  m_ObjectHideFlags: 0
  m_CorrespondingSourceObject: {fileID: 0}
  m_PrefabInstance: {fileID: 0}
  m_PrefabAsset: {fileID: 0}
  m_GameObject: {fileID: 6421371450313891992}
  m_Mesh: {fileID: 10207, guid: 0000000000000000e000000000000000, type: 0}
--- !u!135 &168451937821874537
SphereCollider:
  m_ObjectHideFlags: 0
  m_CorrespondingSourceObject: {fileID: 0}
  m_PrefabInstance: {fileID: 0}
  m_PrefabAsset: {fileID: 0}
  m_GameObject: {fileID: 6421371450313891992}
  m_Material: {fileID: 0}
  m_IsTrigger: 0
  m_Enabled: 1
  serializedVersion: 2
  m_Radius: 0.48
  m_Center: {x: 0, y: 0, z: 0}
--- !u!114 &862342350251935012
MonoBehaviour:
  m_ObjectHideFlags: 0
  m_CorrespondingSourceObject: {fileID: 0}
  m_PrefabInstance: {fileID: 0}
  m_PrefabAsset: {fileID: 0}
  m_GameObject: {fileID: 6421371450313891992}
  m_Enabled: 1
  m_EditorHideFlags: 0
  m_Script: {fileID: 11500000, guid: f9b0ce1bb69c96b49a7ac1098a7f5796, type: 3}
  m_Name: 
  m_EditorClassIdentifier: 
  damageMultiplier: 1
  sensibilityToSelfdamage: 0.5
--- !u!1 &7448957880145452174
GameObject:
  m_ObjectHideFlags: 0
  m_CorrespondingSourceObject: {fileID: 0}
  m_PrefabInstance: {fileID: 0}
  m_PrefabAsset: {fileID: 0}
  serializedVersion: 6
  m_Component:
  - component: {fileID: 3253201880669482562}
  - component: {fileID: 2915308685551445665}
  - component: {fileID: 3804506681843464078}
  m_Layer: 5
  m_Name: ImageBackground
  m_TagString: Untagged
  m_Icon: {fileID: 0}
  m_NavMeshLayer: 0
  m_StaticEditorFlags: 0
  m_IsActive: 1
--- !u!224 &3253201880669482562
RectTransform:
  m_ObjectHideFlags: 0
  m_CorrespondingSourceObject: {fileID: 0}
  m_PrefabInstance: {fileID: 0}
  m_PrefabAsset: {fileID: 0}
  m_GameObject: {fileID: 7448957880145452174}
  m_LocalRotation: {x: 0, y: 0, z: 0, w: 1}
  m_LocalPosition: {x: 0, y: 0, z: 0}
  m_LocalScale: {x: 1, y: 1, z: 1}
  m_Children: []
  m_Father: {fileID: 2517379088827036479}
  m_RootOrder: 0
  m_LocalEulerAnglesHint: {x: 0, y: 0, z: 0}
  m_AnchorMin: {x: 0, y: 0}
  m_AnchorMax: {x: 1, y: 1}
  m_AnchoredPosition: {x: 0, y: 0}
  m_SizeDelta: {x: 0, y: 0}
  m_Pivot: {x: 0.5, y: 0.5}
--- !u!222 &2915308685551445665
CanvasRenderer:
  m_ObjectHideFlags: 0
  m_CorrespondingSourceObject: {fileID: 0}
  m_PrefabInstance: {fileID: 0}
  m_PrefabAsset: {fileID: 0}
  m_GameObject: {fileID: 7448957880145452174}
  m_CullTransparentMesh: 0
--- !u!114 &3804506681843464078
MonoBehaviour:
  m_ObjectHideFlags: 0
  m_CorrespondingSourceObject: {fileID: 0}
  m_PrefabInstance: {fileID: 0}
  m_PrefabAsset: {fileID: 0}
  m_GameObject: {fileID: 7448957880145452174}
  m_Enabled: 1
  m_EditorHideFlags: 0
  m_Script: {fileID: -765806418, guid: f70555f144d8491a825f0804e09c671c, type: 3}
  m_Name: 
  m_EditorClassIdentifier: 
  m_Material: {fileID: 0}
  m_Color: {r: 1, g: 1, b: 1, a: 1}
  m_RaycastTarget: 1
  m_OnCullStateChanged:
    m_PersistentCalls:
      m_Calls: []
  m_Sprite: {fileID: 21300000, guid: 3e7d439637d58744ba13be1b4b74413b, type: 3}
  m_Type: 0
  m_PreserveAspect: 0
  m_FillCenter: 1
  m_FillMethod: 4
  m_FillAmount: 1
  m_FillClockwise: 1
  m_FillOrigin: 0
  m_UseSpriteMesh: 0
--- !u!1 &7471052639545543870
GameObject:
  m_ObjectHideFlags: 0
  m_CorrespondingSourceObject: {fileID: 0}
  m_PrefabInstance: {fileID: 0}
  m_PrefabAsset: {fileID: 0}
  serializedVersion: 6
  m_Component:
  - component: {fileID: 2517379088827036479}
  - component: {fileID: 118020985647647040}
  - component: {fileID: 6023316067820363403}
  - component: {fileID: 1997026530960526579}
  m_Layer: 5
  m_Name: Canvas
  m_TagString: Untagged
  m_Icon: {fileID: 0}
  m_NavMeshLayer: 0
  m_StaticEditorFlags: 0
  m_IsActive: 1
--- !u!224 &2517379088827036479
RectTransform:
  m_ObjectHideFlags: 0
  m_CorrespondingSourceObject: {fileID: 0}
  m_PrefabInstance: {fileID: 0}
  m_PrefabAsset: {fileID: 0}
  m_GameObject: {fileID: 7471052639545543870}
  m_LocalRotation: {x: -0, y: -0, z: -0, w: 1}
  m_LocalPosition: {x: 0, y: 0, z: -0.123}
  m_LocalScale: {x: 1, y: 1, z: 1}
  m_Children:
  - {fileID: 3253201880669482562}
  - {fileID: 8078929863353424972}
  m_Father: {fileID: 3175718064325614203}
  m_RootOrder: 0
  m_LocalEulerAnglesHint: {x: 0, y: 0, z: 0}
  m_AnchorMin: {x: 0.5, y: 0.5}
  m_AnchorMax: {x: 0.5, y: 0.5}
  m_AnchoredPosition: {x: 0, y: 0}
  m_SizeDelta: {x: 1, y: 0.1}
  m_Pivot: {x: 0.5, y: 0.5}
--- !u!223 &118020985647647040
Canvas:
  m_ObjectHideFlags: 0
  m_CorrespondingSourceObject: {fileID: 0}
  m_PrefabInstance: {fileID: 0}
  m_PrefabAsset: {fileID: 0}
  m_GameObject: {fileID: 7471052639545543870}
  m_Enabled: 1
  serializedVersion: 3
  m_RenderMode: 2
  m_Camera: {fileID: 0}
  m_PlaneDistance: 100
  m_PixelPerfect: 0
  m_ReceivesEvents: 1
  m_OverrideSorting: 0
  m_OverridePixelPerfect: 0
  m_SortingBucketNormalizedSize: 0
  m_AdditionalShaderChannelsFlag: 0
  m_SortingLayerID: 788040023
  m_SortingOrder: 0
  m_TargetDisplay: 0
--- !u!114 &6023316067820363403
MonoBehaviour:
  m_ObjectHideFlags: 0
  m_CorrespondingSourceObject: {fileID: 0}
  m_PrefabInstance: {fileID: 0}
  m_PrefabAsset: {fileID: 0}
  m_GameObject: {fileID: 7471052639545543870}
  m_Enabled: 1
  m_EditorHideFlags: 0
  m_Script: {fileID: 1980459831, guid: f70555f144d8491a825f0804e09c671c, type: 3}
  m_Name: 
  m_EditorClassIdentifier: 
  m_UiScaleMode: 0
  m_ReferencePixelsPerUnit: 100
  m_ScaleFactor: 1
  m_ReferenceResolution: {x: 800, y: 600}
  m_ScreenMatchMode: 0
  m_MatchWidthOrHeight: 0
  m_PhysicalUnit: 3
  m_FallbackScreenDPI: 96
  m_DefaultSpriteDPI: 96
  m_DynamicPixelsPerUnit: 1
--- !u!114 &1997026530960526579
MonoBehaviour:
  m_ObjectHideFlags: 0
  m_CorrespondingSourceObject: {fileID: 0}
  m_PrefabInstance: {fileID: 0}
  m_PrefabAsset: {fileID: 0}
  m_GameObject: {fileID: 7471052639545543870}
  m_Enabled: 1
  m_EditorHideFlags: 0
  m_Script: {fileID: 1301386320, guid: f70555f144d8491a825f0804e09c671c, type: 3}
  m_Name: 
  m_EditorClassIdentifier: 
  m_IgnoreReversedGraphics: 1
  m_BlockingObjects: 0
  m_BlockingMask:
    serializedVersion: 2
    m_Bits: 4294967295
--- !u!1 &8093968053717355753
GameObject:
  m_ObjectHideFlags: 0
  m_CorrespondingSourceObject: {fileID: 0}
  m_PrefabInstance: {fileID: 0}
  m_PrefabAsset: {fileID: 0}
  serializedVersion: 6
  m_Component:
  - component: {fileID: 8093968053717355754}
  - component: {fileID: 2104015986810675393}
  - component: {fileID: 2231955200838058728}
  m_Layer: 10
  m_Name: Weapon_EyeLazers
  m_TagString: Untagged
  m_Icon: {fileID: 0}
  m_NavMeshLayer: 0
  m_StaticEditorFlags: 0
  m_IsActive: 1
--- !u!4 &8093968053717355754
Transform:
  m_ObjectHideFlags: 0
  m_CorrespondingSourceObject: {fileID: 0}
  m_PrefabInstance: {fileID: 0}
  m_PrefabAsset: {fileID: 0}
  m_GameObject: {fileID: 8093968053717355753}
  m_LocalRotation: {x: 0, y: 0, z: 0, w: 1}
  m_LocalPosition: {x: 0, y: 0, z: 0.052}
  m_LocalScale: {x: 1, y: 1, z: 1}
  m_Children:
  - {fileID: 7332647584199454861}
  - {fileID: 2096565386399891227}
  m_Father: {fileID: 6571005840976436832}
  m_RootOrder: 0
  m_LocalEulerAnglesHint: {x: 0, y: 0, z: 0}
--- !u!114 &2104015986810675393
MonoBehaviour:
  m_ObjectHideFlags: 0
  m_CorrespondingSourceObject: {fileID: 0}
  m_PrefabInstance: {fileID: 0}
  m_PrefabAsset: {fileID: 0}
  m_GameObject: {fileID: 8093968053717355753}
  m_Enabled: 1
  m_EditorHideFlags: 0
  m_Script: {fileID: 11500000, guid: 3ad90ba0b1477764da373f5ec01a8cb5, type: 3}
  m_Name: 
  m_EditorClassIdentifier: 
  weaponName: 
  weaponIcon: {fileID: 0}
  crosshairDataDefault:
    crosshairSprite: {fileID: 0}
    crosshairSize: 0
    crosshairColor: {r: 0, g: 0, b: 0, a: 0}
  crosshairDataTargetInSight:
    crosshairSprite: {fileID: 0}
    crosshairSize: 0
    crosshairColor: {r: 0, g: 0, b: 0, a: 0}
  weaponRoot: {fileID: 8815063736924141185}
  weaponMuzzle: {fileID: 2096565386399891227}
  shootType: 1
  projectilePrefab: {fileID: 528546716365072993, guid: ec753d54f333bb944b8b04884ad63828,
    type: 3}
  delayBetweenShots: 0.8
  bulletSpreadAngle: 0
  bulletsPerShot: 1
  recoilForce: 1
  aimZoomRatio: 1
  aimOffset: {x: 0, y: 0, z: 0}
  ammoReloadRate: 0.5
  ammoReloadDelay: 0.5
  maxAmmo: 100
  maxChargeDuration: 2
  ammoUsedOnStartCharge: 1
  ammoUsageRateWhileCharging: 2
  muzzleFlashPrefab: {fileID: 3930201484039205849}
  shootSFX: {fileID: 8300000, guid: a56e3c9f90e17894eb1625f603eceb54, type: 3}
  changeWeaponSFX: {fileID: 0}
--- !u!82 &2231955200838058728
AudioSource:
  m_ObjectHideFlags: 0
  m_CorrespondingSourceObject: {fileID: 0}
  m_PrefabInstance: {fileID: 0}
  m_PrefabAsset: {fileID: 0}
  m_GameObject: {fileID: 8093968053717355753}
  m_Enabled: 1
  serializedVersion: 4
  OutputAudioMixerGroup: {fileID: 243177779269262668, guid: fcc71635aab95ff4fbdf1880bf2afa2f,
    type: 2}
  m_audioClip: {fileID: 0}
  m_PlayOnAwake: 0
  m_Volume: 0.6
  m_Pitch: 1
  Loop: 0
  Mute: 0
  Spatialize: 0
  SpatializePostEffects: 0
  Priority: 128
  DopplerLevel: 1
  MinDistance: 1
  MaxDistance: 500
  Pan2D: 0
  rolloffMode: 0
  BypassEffects: 0
  BypassListenerEffects: 0
  BypassReverbZones: 0
  rolloffCustomCurve:
    serializedVersion: 2
    m_Curve:
    - serializedVersion: 3
      time: 0
      value: 1
      inSlope: 0
      outSlope: 0
      tangentMode: 0
      weightedMode: 0
      inWeight: 0.33333334
      outWeight: 0.33333334
    - serializedVersion: 3
      time: 1
      value: 0
      inSlope: 0
      outSlope: 0
      tangentMode: 0
      weightedMode: 0
      inWeight: 0.33333334
      outWeight: 0.33333334
    m_PreInfinity: 2
    m_PostInfinity: 2
    m_RotationOrder: 4
  panLevelCustomCurve:
    serializedVersion: 2
    m_Curve:
    - serializedVersion: 3
      time: 0
      value: 0.5
      inSlope: 0
      outSlope: 0
      tangentMode: 0
      weightedMode: 0
      inWeight: 0.33333334
      outWeight: 0.33333334
    m_PreInfinity: 2
    m_PostInfinity: 2
    m_RotationOrder: 4
  spreadCustomCurve:
    serializedVersion: 2
    m_Curve:
    - serializedVersion: 3
      time: 0
      value: 0
      inSlope: 0
      outSlope: 0
      tangentMode: 0
      weightedMode: 0
      inWeight: 0.33333334
      outWeight: 0.33333334
    m_PreInfinity: 2
    m_PostInfinity: 2
    m_RotationOrder: 4
  reverbZoneMixCustomCurve:
    serializedVersion: 2
    m_Curve:
    - serializedVersion: 3
      time: 0
      value: 1
      inSlope: 0
      outSlope: 0
      tangentMode: 0
      weightedMode: 0
      inWeight: 0.33333334
      outWeight: 0.33333334
    m_PreInfinity: 2
    m_PostInfinity: 2
    m_RotationOrder: 4
--- !u!1 &8350463800019646436
GameObject:
  m_ObjectHideFlags: 0
  m_CorrespondingSourceObject: {fileID: 0}
  m_PrefabInstance: {fileID: 0}
  m_PrefabAsset: {fileID: 0}
  serializedVersion: 6
  m_Component:
  - component: {fileID: 8078929863353424972}
  - component: {fileID: 8865950977894298914}
  - component: {fileID: 5299349968446827641}
  m_Layer: 5
  m_Name: ImageFill
  m_TagString: Untagged
  m_Icon: {fileID: 0}
  m_NavMeshLayer: 0
  m_StaticEditorFlags: 0
  m_IsActive: 1
--- !u!224 &8078929863353424972
RectTransform:
  m_ObjectHideFlags: 0
  m_CorrespondingSourceObject: {fileID: 0}
  m_PrefabInstance: {fileID: 0}
  m_PrefabAsset: {fileID: 0}
  m_GameObject: {fileID: 8350463800019646436}
  m_LocalRotation: {x: 0, y: 0, z: 0, w: 1}
  m_LocalPosition: {x: 0, y: 0, z: 0}
  m_LocalScale: {x: 1, y: 1, z: 1}
  m_Children: []
  m_Father: {fileID: 2517379088827036479}
  m_RootOrder: 1
  m_LocalEulerAnglesHint: {x: 0, y: 0, z: 0}
  m_AnchorMin: {x: 0, y: 0}
  m_AnchorMax: {x: 1, y: 1}
  m_AnchoredPosition: {x: 0, y: 0}
  m_SizeDelta: {x: -0.019999998, y: -0.019999998}
  m_Pivot: {x: 0.5, y: 0.5}
--- !u!222 &8865950977894298914
CanvasRenderer:
  m_ObjectHideFlags: 0
  m_CorrespondingSourceObject: {fileID: 0}
  m_PrefabInstance: {fileID: 0}
  m_PrefabAsset: {fileID: 0}
  m_GameObject: {fileID: 8350463800019646436}
  m_CullTransparentMesh: 0
--- !u!114 &5299349968446827641
MonoBehaviour:
  m_ObjectHideFlags: 0
  m_CorrespondingSourceObject: {fileID: 0}
  m_PrefabInstance: {fileID: 0}
  m_PrefabAsset: {fileID: 0}
  m_GameObject: {fileID: 8350463800019646436}
  m_Enabled: 1
  m_EditorHideFlags: 0
  m_Script: {fileID: -765806418, guid: f70555f144d8491a825f0804e09c671c, type: 3}
  m_Name: 
  m_EditorClassIdentifier: 
  m_Material: {fileID: 0}
  m_Color: {r: 1, g: 0, b: 0, a: 1}
  m_RaycastTarget: 1
  m_OnCullStateChanged:
    m_PersistentCalls:
      m_Calls: []
  m_Sprite: {fileID: 21300000, guid: d194854d61472d744b8684ceab84264a, type: 3}
  m_Type: 3
  m_PreserveAspect: 0
  m_FillCenter: 1
  m_FillMethod: 0
  m_FillAmount: 1
  m_FillClockwise: 1
  m_FillOrigin: 1
  m_UseSpriteMesh: 0
--- !u!1 &8815063736924141185
GameObject:
  m_ObjectHideFlags: 0
  m_CorrespondingSourceObject: {fileID: 0}
  m_PrefabInstance: {fileID: 0}
  m_PrefabAsset: {fileID: 0}
  serializedVersion: 6
  m_Component:
  - component: {fileID: 7332647584199454861}
  m_Layer: 10
  m_Name: GunRoot
  m_TagString: Untagged
  m_Icon: {fileID: 0}
  m_NavMeshLayer: 0
  m_StaticEditorFlags: 0
  m_IsActive: 1
--- !u!4 &7332647584199454861
Transform:
  m_ObjectHideFlags: 0
  m_CorrespondingSourceObject: {fileID: 0}
  m_PrefabInstance: {fileID: 0}
  m_PrefabAsset: {fileID: 0}
  m_GameObject: {fileID: 8815063736924141185}
  m_LocalRotation: {x: 0, y: 0, z: 0, w: 1}
  m_LocalPosition: {x: 0, y: 0, z: 0}
  m_LocalScale: {x: 1, y: 1, z: 1}
  m_Children: []
  m_Father: {fileID: 8093968053717355754}
  m_RootOrder: 0
  m_LocalEulerAnglesHint: {x: 0, y: 0, z: 0}
--- !u!1 &9200139261743394960
GameObject:
  m_ObjectHideFlags: 0
  m_CorrespondingSourceObject: {fileID: 0}
  m_PrefabInstance: {fileID: 0}
  m_PrefabAsset: {fileID: 0}
  serializedVersion: 6
  m_Component:
  - component: {fileID: 6571005840976436832}
  m_Layer: 0
  m_Name: WeaponRoot
  m_TagString: Untagged
  m_Icon: {fileID: 0}
  m_NavMeshLayer: 0
  m_StaticEditorFlags: 0
  m_IsActive: 1
--- !u!4 &6571005840976436832
Transform:
  m_ObjectHideFlags: 0
  m_CorrespondingSourceObject: {fileID: 0}
  m_PrefabInstance: {fileID: 0}
  m_PrefabAsset: {fileID: 0}
  m_GameObject: {fileID: 9200139261743394960}
  m_LocalRotation: {x: -0, y: 1, z: -0, w: 0}
  m_LocalPosition: {x: 0, y: 1.347, z: 0.256}
  m_LocalScale: {x: 1, y: 1, z: 1}
  m_Children:
  - {fileID: 8093968053717355754}
  m_Father: {fileID: 2015434656898269656}
  m_RootOrder: 1
  m_LocalEulerAnglesHint: {x: 0, y: 180, z: 0}
--- !u!1001 &320366457750418391
PrefabInstance:
  m_ObjectHideFlags: 0
  serializedVersion: 2
  m_Modification:
    m_TransformParent: {fileID: 2015434656898269656}
    m_Modifications:
    - target: {fileID: 100000, guid: 8e64c7aa328349d4ea713298f19a414f, type: 3}
      propertyPath: m_Name
      value: BasicRobot
      objectReference: {fileID: 0}
    - target: {fileID: 400000, guid: 8e64c7aa328349d4ea713298f19a414f, type: 3}
      propertyPath: m_LocalPosition.x
      value: 0
      objectReference: {fileID: 0}
    - target: {fileID: 400000, guid: 8e64c7aa328349d4ea713298f19a414f, type: 3}
      propertyPath: m_LocalPosition.y
      value: 0.768
      objectReference: {fileID: 0}
    - target: {fileID: 400000, guid: 8e64c7aa328349d4ea713298f19a414f, type: 3}
      propertyPath: m_LocalPosition.z
      value: 0
      objectReference: {fileID: 0}
    - target: {fileID: 400000, guid: 8e64c7aa328349d4ea713298f19a414f, type: 3}
      propertyPath: m_LocalRotation.x
      value: 0
      objectReference: {fileID: 0}
    - target: {fileID: 400000, guid: 8e64c7aa328349d4ea713298f19a414f, type: 3}
      propertyPath: m_LocalRotation.y
      value: 0
      objectReference: {fileID: 0}
    - target: {fileID: 400000, guid: 8e64c7aa328349d4ea713298f19a414f, type: 3}
      propertyPath: m_LocalRotation.z
      value: 0
      objectReference: {fileID: 0}
    - target: {fileID: 400000, guid: 8e64c7aa328349d4ea713298f19a414f, type: 3}
      propertyPath: m_LocalRotation.w
      value: 1
      objectReference: {fileID: 0}
    - target: {fileID: 400000, guid: 8e64c7aa328349d4ea713298f19a414f, type: 3}
      propertyPath: m_RootOrder
      value: 0
      objectReference: {fileID: 0}
    - target: {fileID: 400000, guid: 8e64c7aa328349d4ea713298f19a414f, type: 3}
      propertyPath: m_LocalEulerAnglesHint.x
      value: 0
      objectReference: {fileID: 0}
    - target: {fileID: 400000, guid: 8e64c7aa328349d4ea713298f19a414f, type: 3}
      propertyPath: m_LocalEulerAnglesHint.y
      value: 0
      objectReference: {fileID: 0}
    - target: {fileID: 400000, guid: 8e64c7aa328349d4ea713298f19a414f, type: 3}
      propertyPath: m_LocalEulerAnglesHint.z
      value: 0
      objectReference: {fileID: 0}
    - target: {fileID: 9500000, guid: 8e64c7aa328349d4ea713298f19a414f, type: 3}
      propertyPath: m_Controller
      value: 
      objectReference: {fileID: 9100000, guid: e029e430e913b374387843833ab0b593, type: 2}
    - target: {fileID: 13700000, guid: 8e64c7aa328349d4ea713298f19a414f, type: 3}
      propertyPath: m_CastShadows
      value: 0
      objectReference: {fileID: 0}
    - target: {fileID: 13700002, guid: 8e64c7aa328349d4ea713298f19a414f, type: 3}
      propertyPath: m_CastShadows
      value: 0
      objectReference: {fileID: 0}
    - target: {fileID: 13700004, guid: 8e64c7aa328349d4ea713298f19a414f, type: 3}
      propertyPath: m_CastShadows
      value: 0
      objectReference: {fileID: 0}
    m_RemovedComponents: []
  m_SourcePrefab: {fileID: 100100000, guid: 8e64c7aa328349d4ea713298f19a414f, type: 3}
--- !u!95 &320366457759794871 stripped
Animator:
  m_CorrespondingSourceObject: {fileID: 9500000, guid: 8e64c7aa328349d4ea713298f19a414f,
    type: 3}
  m_PrefabInstance: {fileID: 320366457750418391}
  m_PrefabAsset: {fileID: 0}
--- !u!4 &320366457750808907 stripped
Transform:
  m_CorrespondingSourceObject: {fileID: 400028, guid: 8e64c7aa328349d4ea713298f19a414f,
    type: 3}
  m_PrefabInstance: {fileID: 320366457750418391}
  m_PrefabAsset: {fileID: 0}
--- !u!4 &320366457750808917 stripped
Transform:
  m_CorrespondingSourceObject: {fileID: 400002, guid: 8e64c7aa328349d4ea713298f19a414f,
    type: 3}
  m_PrefabInstance: {fileID: 320366457750418391}
  m_PrefabAsset: {fileID: 0}
--- !u!4 &320366457750808957 stripped
Transform:
  m_CorrespondingSourceObject: {fileID: 400042, guid: 8e64c7aa328349d4ea713298f19a414f,
    type: 3}
  m_PrefabInstance: {fileID: 320366457750418391}
  m_PrefabAsset: {fileID: 0}
--- !u!4 &320366457750808945 stripped
Transform:
  m_CorrespondingSourceObject: {fileID: 400038, guid: 8e64c7aa328349d4ea713298f19a414f,
    type: 3}
  m_PrefabInstance: {fileID: 320366457750418391}
  m_PrefabAsset: {fileID: 0}
--- !u!4 &320366457750808899 stripped
Transform:
  m_CorrespondingSourceObject: {fileID: 400020, guid: 8e64c7aa328349d4ea713298f19a414f,
    type: 3}
  m_PrefabInstance: {fileID: 320366457750418391}
  m_PrefabAsset: {fileID: 0}
--- !u!4 &320366457750808919 stripped
Transform:
  m_CorrespondingSourceObject: {fileID: 400000, guid: 8e64c7aa328349d4ea713298f19a414f,
    type: 3}
  m_PrefabInstance: {fileID: 320366457750418391}
  m_PrefabAsset: {fileID: 0}
--- !u!1001 &1680067821895709280
PrefabInstance:
  m_ObjectHideFlags: 0
  serializedVersion: 2
  m_Modification:
    m_TransformParent: {fileID: 320366457750808917}
    m_Modifications:
    - target: {fileID: 6523915449405344066, guid: 7593818fba43c7f4c8372299ce5e893f,
        type: 3}
      propertyPath: m_Name
      value: VFX_HitSparks (2)
      objectReference: {fileID: 0}
    - target: {fileID: 7635230255058315795, guid: 7593818fba43c7f4c8372299ce5e893f,
        type: 3}
      propertyPath: looping
      value: 0
      objectReference: {fileID: 0}
    - target: {fileID: 8492437560918690266, guid: 7593818fba43c7f4c8372299ce5e893f,
        type: 3}
      propertyPath: m_LocalPosition.x
      value: 0.074
      objectReference: {fileID: 0}
    - target: {fileID: 8492437560918690266, guid: 7593818fba43c7f4c8372299ce5e893f,
        type: 3}
      propertyPath: m_LocalPosition.y
      value: 0.11
      objectReference: {fileID: 0}
    - target: {fileID: 8492437560918690266, guid: 7593818fba43c7f4c8372299ce5e893f,
        type: 3}
      propertyPath: m_LocalPosition.z
      value: -0.085
      objectReference: {fileID: 0}
    - target: {fileID: 8492437560918690266, guid: 7593818fba43c7f4c8372299ce5e893f,
        type: 3}
      propertyPath: m_LocalRotation.x
      value: -0.54347205
      objectReference: {fileID: 0}
    - target: {fileID: 8492437560918690266, guid: 7593818fba43c7f4c8372299ce5e893f,
        type: 3}
      propertyPath: m_LocalRotation.y
      value: 0.6778407
      objectReference: {fileID: 0}
    - target: {fileID: 8492437560918690266, guid: 7593818fba43c7f4c8372299ce5e893f,
        type: 3}
      propertyPath: m_LocalRotation.z
      value: -0.07536226
      objectReference: {fileID: 0}
    - target: {fileID: 8492437560918690266, guid: 7593818fba43c7f4c8372299ce5e893f,
        type: 3}
      propertyPath: m_LocalRotation.w
      value: 0.48937786
      objectReference: {fileID: 0}
    - target: {fileID: 8492437560918690266, guid: 7593818fba43c7f4c8372299ce5e893f,
        type: 3}
      propertyPath: m_RootOrder
      value: 2
      objectReference: {fileID: 0}
    - target: {fileID: 8492437560918690266, guid: 7593818fba43c7f4c8372299ce5e893f,
        type: 3}
      propertyPath: m_LocalEulerAnglesHint.x
      value: -25.452002
      objectReference: {fileID: 0}
    - target: {fileID: 8492437560918690266, guid: 7593818fba43c7f4c8372299ce5e893f,
        type: 3}
      propertyPath: m_LocalEulerAnglesHint.y
      value: 124.364006
      objectReference: {fileID: 0}
    - target: {fileID: 8492437560918690266, guid: 7593818fba43c7f4c8372299ce5e893f,
        type: 3}
      propertyPath: m_LocalEulerAnglesHint.z
      value: -63.852
      objectReference: {fileID: 0}
    m_RemovedComponents: []
  m_SourcePrefab: {fileID: 100100000, guid: 7593818fba43c7f4c8372299ce5e893f, type: 3}
--- !u!198 &9125706537325074547 stripped
ParticleSystem:
  m_CorrespondingSourceObject: {fileID: 7635230255058315795, guid: 7593818fba43c7f4c8372299ce5e893f,
    type: 3}
  m_PrefabInstance: {fileID: 1680067821895709280}
  m_PrefabAsset: {fileID: 0}
--- !u!1001 &1787833773761626380
PrefabInstance:
  m_ObjectHideFlags: 0
  serializedVersion: 2
  m_Modification:
    m_TransformParent: {fileID: 320366457750808917}
    m_Modifications:
    - target: {fileID: 6523915449405344066, guid: 7593818fba43c7f4c8372299ce5e893f,
        type: 3}
      propertyPath: m_Name
      value: VFX_HitSparks (3)
      objectReference: {fileID: 0}
    - target: {fileID: 7635230255058315795, guid: 7593818fba43c7f4c8372299ce5e893f,
        type: 3}
      propertyPath: looping
      value: 0
      objectReference: {fileID: 0}
    - target: {fileID: 8492437560918690266, guid: 7593818fba43c7f4c8372299ce5e893f,
        type: 3}
      propertyPath: m_LocalPosition.x
      value: -0.163
      objectReference: {fileID: 0}
    - target: {fileID: 8492437560918690266, guid: 7593818fba43c7f4c8372299ce5e893f,
        type: 3}
      propertyPath: m_LocalPosition.y
      value: 0.001
      objectReference: {fileID: 0}
    - target: {fileID: 8492437560918690266, guid: 7593818fba43c7f4c8372299ce5e893f,
        type: 3}
      propertyPath: m_LocalPosition.z
      value: 0.189
      objectReference: {fileID: 0}
    - target: {fileID: 8492437560918690266, guid: 7593818fba43c7f4c8372299ce5e893f,
        type: 3}
      propertyPath: m_LocalRotation.x
      value: -0.5366325
      objectReference: {fileID: 0}
    - target: {fileID: 8492437560918690266, guid: 7593818fba43c7f4c8372299ce5e893f,
        type: 3}
      propertyPath: m_LocalRotation.y
      value: -0.040962625
      objectReference: {fileID: 0}
    - target: {fileID: 8492437560918690266, guid: 7593818fba43c7f4c8372299ce5e893f,
        type: 3}
      propertyPath: m_LocalRotation.z
      value: 0.54357654
      objectReference: {fileID: 0}
    - target: {fileID: 8492437560918690266, guid: 7593818fba43c7f4c8372299ce5e893f,
        type: 3}
      propertyPath: m_LocalRotation.w
      value: 0.64410573
      objectReference: {fileID: 0}
    - target: {fileID: 8492437560918690266, guid: 7593818fba43c7f4c8372299ce5e893f,
        type: 3}
      propertyPath: m_RootOrder
      value: 3
      objectReference: {fileID: 0}
    - target: {fileID: 8492437560918690266, guid: 7593818fba43c7f4c8372299ce5e893f,
        type: 3}
      propertyPath: m_LocalEulerAnglesHint.x
      value: -400.298
      objectReference: {fileID: 0}
    - target: {fileID: 8492437560918690266, guid: 7593818fba43c7f4c8372299ce5e893f,
        type: 3}
      propertyPath: m_LocalEulerAnglesHint.y
      value: -56.524002
      objectReference: {fileID: 0}
    - target: {fileID: 8492437560918690266, guid: 7593818fba43c7f4c8372299ce5e893f,
        type: 3}
      propertyPath: m_LocalEulerAnglesHint.z
      value: -257.36
      objectReference: {fileID: 0}
    m_RemovedComponents: []
  m_SourcePrefab: {fileID: 100100000, guid: 7593818fba43c7f4c8372299ce5e893f, type: 3}
--- !u!198 &8158939429672774431 stripped
ParticleSystem:
  m_CorrespondingSourceObject: {fileID: 7635230255058315795, guid: 7593818fba43c7f4c8372299ce5e893f,
    type: 3}
  m_PrefabInstance: {fileID: 1787833773761626380}
  m_PrefabAsset: {fileID: 0}
--- !u!1001 &1946610501135631697
PrefabInstance:
  m_ObjectHideFlags: 0
  serializedVersion: 2
  m_Modification:
    m_TransformParent: {fileID: 320366457750808957}
    m_Modifications:
    - target: {fileID: 878787690634796009, guid: f77e2130c96652640accf8b9f6990d6b,
        type: 3}
      propertyPath: m_LocalPosition.x
      value: 0
      objectReference: {fileID: 0}
    - target: {fileID: 878787690634796009, guid: f77e2130c96652640accf8b9f6990d6b,
        type: 3}
      propertyPath: m_LocalPosition.y
      value: 0
      objectReference: {fileID: 0}
    - target: {fileID: 878787690634796009, guid: f77e2130c96652640accf8b9f6990d6b,
        type: 3}
      propertyPath: m_LocalPosition.z
      value: 0
      objectReference: {fileID: 0}
    - target: {fileID: 878787690634796009, guid: f77e2130c96652640accf8b9f6990d6b,
        type: 3}
      propertyPath: m_LocalRotation.x
      value: 0
      objectReference: {fileID: 0}
    - target: {fileID: 878787690634796009, guid: f77e2130c96652640accf8b9f6990d6b,
        type: 3}
      propertyPath: m_LocalRotation.y
      value: 0
      objectReference: {fileID: 0}
    - target: {fileID: 878787690634796009, guid: f77e2130c96652640accf8b9f6990d6b,
        type: 3}
      propertyPath: m_LocalRotation.z
      value: 0
      objectReference: {fileID: 0}
    - target: {fileID: 878787690634796009, guid: f77e2130c96652640accf8b9f6990d6b,
        type: 3}
      propertyPath: m_LocalRotation.w
      value: 1
      objectReference: {fileID: 0}
    - target: {fileID: 878787690634796009, guid: f77e2130c96652640accf8b9f6990d6b,
        type: 3}
      propertyPath: m_RootOrder
      value: 0
      objectReference: {fileID: 0}
    - target: {fileID: 878787690634796009, guid: f77e2130c96652640accf8b9f6990d6b,
        type: 3}
      propertyPath: m_LocalEulerAnglesHint.x
      value: 0
      objectReference: {fileID: 0}
    - target: {fileID: 878787690634796009, guid: f77e2130c96652640accf8b9f6990d6b,
        type: 3}
      propertyPath: m_LocalEulerAnglesHint.y
      value: 0
      objectReference: {fileID: 0}
    - target: {fileID: 878787690634796009, guid: f77e2130c96652640accf8b9f6990d6b,
        type: 3}
      propertyPath: m_LocalEulerAnglesHint.z
      value: 0
      objectReference: {fileID: 0}
    - target: {fileID: 4134168188543666222, guid: f77e2130c96652640accf8b9f6990d6b,
        type: 3}
      propertyPath: m_Name
      value: VFX_AngrySteam
      objectReference: {fileID: 0}
    m_RemovedComponents: []
  m_SourcePrefab: {fileID: 100100000, guid: f77e2130c96652640accf8b9f6990d6b, type: 3}
--- !u!198 &8934028655093144013 stripped
ParticleSystem:
  m_CorrespondingSourceObject: {fileID: 6989503427151715484, guid: f77e2130c96652640accf8b9f6990d6b,
    type: 3}
  m_PrefabInstance: {fileID: 1946610501135631697}
  m_PrefabAsset: {fileID: 0}
--- !u!1001 &2875289014724193166
PrefabInstance:
  m_ObjectHideFlags: 0
  serializedVersion: 2
  m_Modification:
    m_TransformParent: {fileID: 320366457750808907}
    m_Modifications:
    - target: {fileID: 6523915449405344066, guid: 7593818fba43c7f4c8372299ce5e893f,
        type: 3}
      propertyPath: m_Name
      value: VFX_HitSparks (1)
      objectReference: {fileID: 0}
    - target: {fileID: 7635230255058315795, guid: 7593818fba43c7f4c8372299ce5e893f,
        type: 3}
      propertyPath: looping
      value: 0
      objectReference: {fileID: 0}
    - target: {fileID: 8492437560918690266, guid: 7593818fba43c7f4c8372299ce5e893f,
        type: 3}
      propertyPath: m_LocalPosition.x
      value: -0.01
      objectReference: {fileID: 0}
    - target: {fileID: 8492437560918690266, guid: 7593818fba43c7f4c8372299ce5e893f,
        type: 3}
      propertyPath: m_LocalPosition.y
      value: 0.23180455
      objectReference: {fileID: 0}
    - target: {fileID: 8492437560918690266, guid: 7593818fba43c7f4c8372299ce5e893f,
        type: 3}
      propertyPath: m_LocalPosition.z
      value: -0.10744414
      objectReference: {fileID: 0}
    - target: {fileID: 8492437560918690266, guid: 7593818fba43c7f4c8372299ce5e893f,
        type: 3}
      propertyPath: m_LocalRotation.x
      value: -0.7148972
      objectReference: {fileID: 0}
    - target: {fileID: 8492437560918690266, guid: 7593818fba43c7f4c8372299ce5e893f,
        type: 3}
      propertyPath: m_LocalRotation.y
      value: -0.51951975
      objectReference: {fileID: 0}
    - target: {fileID: 8492437560918690266, guid: 7593818fba43c7f4c8372299ce5e893f,
        type: 3}
      propertyPath: m_LocalRotation.z
      value: -0.14401129
      objectReference: {fileID: 0}
    - target: {fileID: 8492437560918690266, guid: 7593818fba43c7f4c8372299ce5e893f,
        type: 3}
      propertyPath: m_LocalRotation.w
      value: 0.44528872
      objectReference: {fileID: 0}
    - target: {fileID: 8492437560918690266, guid: 7593818fba43c7f4c8372299ce5e893f,
        type: 3}
      propertyPath: m_RootOrder
      value: 4
      objectReference: {fileID: 0}
    - target: {fileID: 8492437560918690266, guid: 7593818fba43c7f4c8372299ce5e893f,
        type: 3}
      propertyPath: m_LocalEulerAnglesHint.x
      value: -287.378
      objectReference: {fileID: 0}
    - target: {fileID: 8492437560918690266, guid: 7593818fba43c7f4c8372299ce5e893f,
        type: 3}
      propertyPath: m_LocalEulerAnglesHint.y
      value: -30.717001
      objectReference: {fileID: 0}
    - target: {fileID: 8492437560918690266, guid: 7593818fba43c7f4c8372299ce5e893f,
        type: 3}
      propertyPath: m_LocalEulerAnglesHint.z
      value: -186.232
      objectReference: {fileID: 0}
    m_RemovedComponents: []
  m_SourcePrefab: {fileID: 100100000, guid: 7593818fba43c7f4c8372299ce5e893f, type: 3}
--- !u!198 &5625802328757436829 stripped
ParticleSystem:
  m_CorrespondingSourceObject: {fileID: 7635230255058315795, guid: 7593818fba43c7f4c8372299ce5e893f,
    type: 3}
  m_PrefabInstance: {fileID: 2875289014724193166}
  m_PrefabAsset: {fileID: 0}
--- !u!1001 &3337951679708442341
PrefabInstance:
  m_ObjectHideFlags: 0
  serializedVersion: 2
  m_Modification:
    m_TransformParent: {fileID: 320366457750808899}
    m_Modifications:
    - target: {fileID: 8855434715677272936, guid: 1bc9e4f49c67a6a41af3e7cb3d30bb43,
        type: 3}
      propertyPath: m_Name
      value: VFX_Alert
      objectReference: {fileID: 0}
    - target: {fileID: 8855434715677272939, guid: 1bc9e4f49c67a6a41af3e7cb3d30bb43,
        type: 3}
      propertyPath: m_SortingLayerID
      value: -372683831
      objectReference: {fileID: 0}
    - target: {fileID: 8855434715677272939, guid: 1bc9e4f49c67a6a41af3e7cb3d30bb43,
        type: 3}
      propertyPath: m_SortingLayer
      value: 1
      objectReference: {fileID: 0}
    - target: {fileID: 8855434715677272939, guid: 1bc9e4f49c67a6a41af3e7cb3d30bb43,
        type: 3}
      propertyPath: m_SortingOrder
      value: 1
      objectReference: {fileID: 0}
    - target: {fileID: 8855434715677272941, guid: 1bc9e4f49c67a6a41af3e7cb3d30bb43,
        type: 3}
      propertyPath: m_LocalPosition.x
      value: 0
      objectReference: {fileID: 0}
    - target: {fileID: 8855434715677272941, guid: 1bc9e4f49c67a6a41af3e7cb3d30bb43,
        type: 3}
      propertyPath: m_LocalPosition.y
      value: 0.419
      objectReference: {fileID: 0}
    - target: {fileID: 8855434715677272941, guid: 1bc9e4f49c67a6a41af3e7cb3d30bb43,
        type: 3}
      propertyPath: m_LocalPosition.z
      value: 0.019
      objectReference: {fileID: 0}
    - target: {fileID: 8855434715677272941, guid: 1bc9e4f49c67a6a41af3e7cb3d30bb43,
        type: 3}
      propertyPath: m_LocalRotation.x
      value: 0
      objectReference: {fileID: 0}
    - target: {fileID: 8855434715677272941, guid: 1bc9e4f49c67a6a41af3e7cb3d30bb43,
        type: 3}
      propertyPath: m_LocalRotation.y
      value: 0
      objectReference: {fileID: 0}
    - target: {fileID: 8855434715677272941, guid: 1bc9e4f49c67a6a41af3e7cb3d30bb43,
        type: 3}
      propertyPath: m_LocalRotation.z
      value: 0
      objectReference: {fileID: 0}
    - target: {fileID: 8855434715677272941, guid: 1bc9e4f49c67a6a41af3e7cb3d30bb43,
        type: 3}
      propertyPath: m_LocalRotation.w
      value: 1
      objectReference: {fileID: 0}
    - target: {fileID: 8855434715677272941, guid: 1bc9e4f49c67a6a41af3e7cb3d30bb43,
        type: 3}
      propertyPath: m_RootOrder
      value: 1
      objectReference: {fileID: 0}
    - target: {fileID: 8855434715677272941, guid: 1bc9e4f49c67a6a41af3e7cb3d30bb43,
        type: 3}
      propertyPath: m_LocalEulerAnglesHint.x
      value: 0
      objectReference: {fileID: 0}
    - target: {fileID: 8855434715677272941, guid: 1bc9e4f49c67a6a41af3e7cb3d30bb43,
        type: 3}
      propertyPath: m_LocalEulerAnglesHint.y
      value: 0
      objectReference: {fileID: 0}
    - target: {fileID: 8855434715677272941, guid: 1bc9e4f49c67a6a41af3e7cb3d30bb43,
        type: 3}
      propertyPath: m_LocalEulerAnglesHint.z
      value: 0
      objectReference: {fileID: 0}
    - target: {fileID: 8855434715677272941, guid: 1bc9e4f49c67a6a41af3e7cb3d30bb43,
        type: 3}
      propertyPath: m_LocalScale.x
      value: 0.36048147
      objectReference: {fileID: 0}
    - target: {fileID: 8855434715677272941, guid: 1bc9e4f49c67a6a41af3e7cb3d30bb43,
        type: 3}
      propertyPath: m_LocalScale.y
      value: 0.36048147
      objectReference: {fileID: 0}
    - target: {fileID: 8855434715677272941, guid: 1bc9e4f49c67a6a41af3e7cb3d30bb43,
        type: 3}
      propertyPath: m_LocalScale.z
      value: 0.36048147
      objectReference: {fileID: 0}
    m_RemovedComponents: []
  m_SourcePrefab: {fileID: 100100000, guid: 1bc9e4f49c67a6a41af3e7cb3d30bb43, type: 3}
--- !u!198 &6104096765092005263 stripped
ParticleSystem:
  m_CorrespondingSourceObject: {fileID: 8855434715677272938, guid: 1bc9e4f49c67a6a41af3e7cb3d30bb43,
    type: 3}
  m_PrefabInstance: {fileID: 3337951679708442341}
  m_PrefabAsset: {fileID: 0}
--- !u!1001 &4390681447884757222
PrefabInstance:
  m_ObjectHideFlags: 0
  serializedVersion: 2
  m_Modification:
    m_TransformParent: {fileID: 320366457750808899}
    m_Modifications:
    - target: {fileID: 264520514954343661, guid: 3f5b545b9a1e74c418b061bba5bb9e2c,
        type: 3}
      propertyPath: m_LocalPosition.x
      value: 0
      objectReference: {fileID: 0}
    - target: {fileID: 264520514954343661, guid: 3f5b545b9a1e74c418b061bba5bb9e2c,
        type: 3}
      propertyPath: m_LocalPosition.y
      value: 0
      objectReference: {fileID: 0}
    - target: {fileID: 264520514954343661, guid: 3f5b545b9a1e74c418b061bba5bb9e2c,
        type: 3}
      propertyPath: m_LocalPosition.z
      value: 0.199
      objectReference: {fileID: 0}
    - target: {fileID: 264520514954343661, guid: 3f5b545b9a1e74c418b061bba5bb9e2c,
        type: 3}
      propertyPath: m_LocalRotation.x
      value: -0.7071068
      objectReference: {fileID: 0}
    - target: {fileID: 264520514954343661, guid: 3f5b545b9a1e74c418b061bba5bb9e2c,
        type: 3}
      propertyPath: m_LocalRotation.y
      value: 0
      objectReference: {fileID: 0}
    - target: {fileID: 264520514954343661, guid: 3f5b545b9a1e74c418b061bba5bb9e2c,
        type: 3}
      propertyPath: m_LocalRotation.z
      value: 0
      objectReference: {fileID: 0}
    - target: {fileID: 264520514954343661, guid: 3f5b545b9a1e74c418b061bba5bb9e2c,
        type: 3}
      propertyPath: m_LocalRotation.w
      value: 0.7071068
      objectReference: {fileID: 0}
    - target: {fileID: 264520514954343661, guid: 3f5b545b9a1e74c418b061bba5bb9e2c,
        type: 3}
      propertyPath: m_RootOrder
      value: 2
      objectReference: {fileID: 0}
    - target: {fileID: 264520514954343661, guid: 3f5b545b9a1e74c418b061bba5bb9e2c,
        type: 3}
      propertyPath: m_LocalEulerAnglesHint.x
      value: -90
      objectReference: {fileID: 0}
    - target: {fileID: 264520514954343661, guid: 3f5b545b9a1e74c418b061bba5bb9e2c,
        type: 3}
      propertyPath: m_LocalEulerAnglesHint.y
      value: 0
      objectReference: {fileID: 0}
    - target: {fileID: 264520514954343661, guid: 3f5b545b9a1e74c418b061bba5bb9e2c,
        type: 3}
      propertyPath: m_LocalEulerAnglesHint.z
      value: 0
      objectReference: {fileID: 0}
    - target: {fileID: 264520514954343661, guid: 3f5b545b9a1e74c418b061bba5bb9e2c,
        type: 3}
      propertyPath: m_LocalScale.x
      value: 0.7510419
      objectReference: {fileID: 0}
    - target: {fileID: 264520514954343661, guid: 3f5b545b9a1e74c418b061bba5bb9e2c,
        type: 3}
      propertyPath: m_LocalScale.y
      value: 0.7510419
      objectReference: {fileID: 0}
    - target: {fileID: 264520514954343661, guid: 3f5b545b9a1e74c418b061bba5bb9e2c,
        type: 3}
      propertyPath: m_LocalScale.z
      value: 0.7510419
      objectReference: {fileID: 0}
    - target: {fileID: 748781637555137343, guid: 3f5b545b9a1e74c418b061bba5bb9e2c,
        type: 3}
      propertyPath: m_Name
      value: VFX_EnemyMuzzleFlash
      objectReference: {fileID: 0}
    - target: {fileID: 7692336672675980230, guid: 3f5b545b9a1e74c418b061bba5bb9e2c,
        type: 3}
      propertyPath: ColorModule.gradient.maxGradient.key1.a
      value: 0
      objectReference: {fileID: 0}
    - target: {fileID: 7692336672675980230, guid: 3f5b545b9a1e74c418b061bba5bb9e2c,
        type: 3}
      propertyPath: ColorModule.gradient.maxGradient.atime0
      value: 36237
      objectReference: {fileID: 0}
    - target: {fileID: 7692336672675980230, guid: 3f5b545b9a1e74c418b061bba5bb9e2c,
        type: 3}
      propertyPath: ColorModule.gradient.maxGradient.ctime1
      value: 59174
      objectReference: {fileID: 0}
    - target: {fileID: 7692336672675980230, guid: 3f5b545b9a1e74c418b061bba5bb9e2c,
        type: 3}
      propertyPath: ColorModule.gradient.maxGradient.key1.g
      value: 0
      objectReference: {fileID: 0}
    - target: {fileID: 7692336672675980230, guid: 3f5b545b9a1e74c418b061bba5bb9e2c,
        type: 3}
      propertyPath: ColorModule.gradient.maxGradient.key2.g
      value: 0
      objectReference: {fileID: 0}
    - target: {fileID: 7692336672675980230, guid: 3f5b545b9a1e74c418b061bba5bb9e2c,
        type: 3}
      propertyPath: ColorModule.gradient.maxGradient.ctime2
      value: 59174
      objectReference: {fileID: 0}
    - target: {fileID: 7692336672675980230, guid: 3f5b545b9a1e74c418b061bba5bb9e2c,
        type: 3}
      propertyPath: ColorModule.gradient.maxGradient.m_NumColorKeys
      value: 2
      objectReference: {fileID: 0}
    - target: {fileID: 7692336672675980230, guid: 3f5b545b9a1e74c418b061bba5bb9e2c,
        type: 3}
      propertyPath: ColorModule.gradient.maxGradient.ctime0
      value: 0
      objectReference: {fileID: 0}
    - target: {fileID: 7692336672675980230, guid: 3f5b545b9a1e74c418b061bba5bb9e2c,
        type: 3}
      propertyPath: ColorModule.gradient.maxGradient.key0.g
      value: 0.28579903
      objectReference: {fileID: 0}
    - target: {fileID: 7692336672675980230, guid: 3f5b545b9a1e74c418b061bba5bb9e2c,
        type: 3}
      propertyPath: ColorModule.gradient.maxGradient.key0.b
      value: 0
      objectReference: {fileID: 0}
    m_RemovedComponents: []
  m_SourcePrefab: {fileID: 100100000, guid: 3f5b545b9a1e74c418b061bba5bb9e2c, type: 3}
--- !u!1 &3930201484039205849 stripped
GameObject:
  m_CorrespondingSourceObject: {fileID: 748781637555137343, guid: 3f5b545b9a1e74c418b061bba5bb9e2c,
    type: 3}
  m_PrefabInstance: {fileID: 4390681447884757222}
  m_PrefabAsset: {fileID: 0}
--- !u!1001 &6567851450993991790
PrefabInstance:
  m_ObjectHideFlags: 0
  serializedVersion: 2
  m_Modification:
    m_TransformParent: {fileID: 320366457750808907}
    m_Modifications:
    - target: {fileID: 6523915449405344066, guid: 7593818fba43c7f4c8372299ce5e893f,
        type: 3}
      propertyPath: m_Name
      value: VFX_HitSparks
      objectReference: {fileID: 0}
    - target: {fileID: 7635230255058315795, guid: 7593818fba43c7f4c8372299ce5e893f,
        type: 3}
      propertyPath: looping
      value: 0
      objectReference: {fileID: 0}
    - target: {fileID: 8492437560918690266, guid: 7593818fba43c7f4c8372299ce5e893f,
        type: 3}
      propertyPath: m_LocalPosition.x
      value: 0.121
      objectReference: {fileID: 0}
    - target: {fileID: 8492437560918690266, guid: 7593818fba43c7f4c8372299ce5e893f,
        type: 3}
      propertyPath: m_LocalPosition.y
      value: 0.23148018
      objectReference: {fileID: 0}
    - target: {fileID: 8492437560918690266, guid: 7593818fba43c7f4c8372299ce5e893f,
        type: 3}
      propertyPath: m_LocalPosition.z
      value: 0.16550253
      objectReference: {fileID: 0}
    - target: {fileID: 8492437560918690266, guid: 7593818fba43c7f4c8372299ce5e893f,
        type: 3}
      propertyPath: m_LocalRotation.x
      value: -0.52289176
      objectReference: {fileID: 0}
    - target: {fileID: 8492437560918690266, guid: 7593818fba43c7f4c8372299ce5e893f,
        type: 3}
      propertyPath: m_LocalRotation.y
      value: -0.0077945217
      objectReference: {fileID: 0}
    - target: {fileID: 8492437560918690266, guid: 7593818fba43c7f4c8372299ce5e893f,
        type: 3}
      propertyPath: m_LocalRotation.z
      value: -0.49815106
      objectReference: {fileID: 0}
    - target: {fileID: 8492437560918690266, guid: 7593818fba43c7f4c8372299ce5e893f,
        type: 3}
      propertyPath: m_LocalRotation.w
      value: 0.6916423
      objectReference: {fileID: 0}
    - target: {fileID: 8492437560918690266, guid: 7593818fba43c7f4c8372299ce5e893f,
        type: 3}
      propertyPath: m_RootOrder
      value: 3
      objectReference: {fileID: 0}
    - target: {fileID: 8492437560918690266, guid: 7593818fba43c7f4c8372299ce5e893f,
        type: 3}
      propertyPath: m_LocalEulerAnglesHint.x
      value: -191.649
      objectReference: {fileID: 0}
    - target: {fileID: 8492437560918690266, guid: 7593818fba43c7f4c8372299ce5e893f,
        type: 3}
      propertyPath: m_LocalEulerAnglesHint.y
      value: 58.606995
      objectReference: {fileID: 0}
    - target: {fileID: 8492437560918690266, guid: 7593818fba43c7f4c8372299ce5e893f,
        type: 3}
      propertyPath: m_LocalEulerAnglesHint.z
      value: -61.186005
      objectReference: {fileID: 0}
    m_RemovedComponents: []
  m_SourcePrefab: {fileID: 100100000, guid: 7593818fba43c7f4c8372299ce5e893f, type: 3}
--- !u!198 &3661562211460385405 stripped
ParticleSystem:
  m_CorrespondingSourceObject: {fileID: 7635230255058315795, guid: 7593818fba43c7f4c8372299ce5e893f,
    type: 3}
  m_PrefabInstance: {fileID: 6567851450993991790}
  m_PrefabAsset: {fileID: 0}
--- !u!1001 &8320672172411124102
PrefabInstance:
  m_ObjectHideFlags: 0
  serializedVersion: 2
  m_Modification:
    m_TransformParent: {fileID: 320366457750808945}
    m_Modifications:
    - target: {fileID: 878787690634796009, guid: f77e2130c96652640accf8b9f6990d6b,
        type: 3}
      propertyPath: m_LocalPosition.x
      value: 0
      objectReference: {fileID: 0}
    - target: {fileID: 878787690634796009, guid: f77e2130c96652640accf8b9f6990d6b,
        type: 3}
      propertyPath: m_LocalPosition.y
      value: 0
      objectReference: {fileID: 0}
    - target: {fileID: 878787690634796009, guid: f77e2130c96652640accf8b9f6990d6b,
        type: 3}
      propertyPath: m_LocalPosition.z
      value: 0
      objectReference: {fileID: 0}
    - target: {fileID: 878787690634796009, guid: f77e2130c96652640accf8b9f6990d6b,
        type: 3}
      propertyPath: m_LocalRotation.x
      value: 1
      objectReference: {fileID: 0}
    - target: {fileID: 878787690634796009, guid: f77e2130c96652640accf8b9f6990d6b,
        type: 3}
      propertyPath: m_LocalRotation.y
      value: 0
      objectReference: {fileID: 0}
    - target: {fileID: 878787690634796009, guid: f77e2130c96652640accf8b9f6990d6b,
        type: 3}
      propertyPath: m_LocalRotation.z
      value: 0
      objectReference: {fileID: 0}
    - target: {fileID: 878787690634796009, guid: f77e2130c96652640accf8b9f6990d6b,
        type: 3}
      propertyPath: m_LocalRotation.w
      value: 0
      objectReference: {fileID: 0}
    - target: {fileID: 878787690634796009, guid: f77e2130c96652640accf8b9f6990d6b,
        type: 3}
      propertyPath: m_RootOrder
      value: 0
      objectReference: {fileID: 0}
    - target: {fileID: 878787690634796009, guid: f77e2130c96652640accf8b9f6990d6b,
        type: 3}
      propertyPath: m_LocalEulerAnglesHint.x
      value: 180
      objectReference: {fileID: 0}
    - target: {fileID: 878787690634796009, guid: f77e2130c96652640accf8b9f6990d6b,
        type: 3}
      propertyPath: m_LocalEulerAnglesHint.y
      value: 0
      objectReference: {fileID: 0}
    - target: {fileID: 878787690634796009, guid: f77e2130c96652640accf8b9f6990d6b,
        type: 3}
      propertyPath: m_LocalEulerAnglesHint.z
      value: 0
      objectReference: {fileID: 0}
    - target: {fileID: 4134168188543666222, guid: f77e2130c96652640accf8b9f6990d6b,
        type: 3}
      propertyPath: m_Name
      value: VFX_AngrySteam
      objectReference: {fileID: 0}
    m_RemovedComponents: []
  m_SourcePrefab: {fileID: 100100000, guid: f77e2130c96652640accf8b9f6990d6b, type: 3}
--- !u!198 &1407167163009738010 stripped
ParticleSystem:
  m_CorrespondingSourceObject: {fileID: 6989503427151715484, guid: f77e2130c96652640accf8b9f6990d6b,
    type: 3}
  m_PrefabInstance: {fileID: 8320672172411124102}
  m_PrefabAsset: {fileID: 0}
